<?xml version="1.0" encoding="UTF-8"?>
<svg transform="rotate(180)" width="903px" height="538px" viewBox="0 0 903 538" version="1.1" xmlns="http://www.w3.org/2000/svg" xmlns:xlink="http://www.w3.org/1999/xlink">
    <!-- Generator: Sketch 52.2 (67145) - http://www.bohemiancoding.com/sketch -->
    <title>flag right Top</title>
    <desc>Created with Sketch.</desc>
    <g id="Symbols" stroke="none" stroke-width="1" fill="none" fill-rule="evenodd" opacity="0.5">
        <g id="Topdeck-Banner" transform="translate(-537.000000, -405.000000)" fill="#CCCC00">
            <g transform="translate(0.000000, 1.000000)" id="flag-right-Top">
                <polygon style="mix-blend-mode: screen;" transform="translate(988.500000, 673.000000) scale(-1, 1) translate(-988.500000, -673.000000) " points="537 404 537 942 1440 671.922715"></polygon>
            </g>
        </g>
    </g>
</svg>